{"email-enron":
  {
    "url":"https://gitlab.com/easy-graph/easygraph-data-email-enron/-/raw/main/email-enron.json?inline=false",
    "is_dynamic": true
  },
  "email-eu":
  {
    "url":"https://gitlab.com/easy-graph/easygraph-data-email-eu/-/raw/main/email-eu.json?inline=false",
    "is_dynamic":true
  },
  "hospital-lyon":
  {
    "url":"https://gitlab.com/easy-graph/easygraph-data-email-eu/-/raw/main/email-eu.json?inline=false",
    "is_dynamic":true
  }
}
